sequence;class
RFRRLRKWTRWRLKKIAMD;0
PIIKRFLGKLTIPVQR;0
RFRRLRKKIRKRLKKIAMD;1
RFGRFLRKIRRFRPKVTITIQ;1
VRRFAWWWAFLRR;1
HTTMVSEEIIMQFLNS;0
FFHHIFRAIVHVPKTIHRLVTG;1
ACTPKRKSATKGDEPAAMD;0
GRVIARPFIGDKAGNFQ;0
PEDDRTLDDDELAEYDLDKYDE;0
VIFSRCRDEMFMTAGNGTIRV;0
GSPALISWIKRKRQQAMD;0
KKTWWKTWWTKW;0
RRWRIVVIRVRRAMD;1
EVGAIERLLQVFDLPVTPPDY;0
GAFETRFVSQVESDSGDRR;0
ILPWKWPLWPWRR;1
IAPFTVGILPMNMHKSH;0
GFMKYIGPLIPHAVKAISKLIAMD;1
RLVRILVSKRPVAIKPYFRL;0
INWNEQRLIAYAENL;0
RGFVRVAMVKGKPL;0
WARFEVERAQWEVERA;0
GPPMMNAAVIKMLKDLG;0
QCRRLCYKQRCVTYCRGR;1
FFHHAFRGIVHVGKTIHRLVTGAMD;1
GVSKILHSAGKFGKAFLGEIMKS;1
VIEVEGTVVENLPNAMFRVELPN;0
EVDGVTSDDEDEYIEETDALGNT;0
TCYCRRRFCVCVGR;1
GRKKRRQRRRPPQ;1
ILPWKWKWWKWRRAMD;1
DAACAAHCLWRAMD;1
FLFSLIPHAIGGLISAFK;1
HYEGILQERLDELGEMPL;0
VSDVLKALEAKIVRWNILDDGIR;0
VGMHDKLFKRARVMYEIERDIS;0
VRRFAWWWAFLRR;1
GECIWDAIFHGAKHFLHRLVNP;1
FFHHIFRGIVHVAKTIHRLVTG;1
KIKIPWGKVKDFLVGGMKAV;1
RGGRLCYCRRRFCVCL;1
RRWRIVVIRWRRAMD;0
GILGKLWEGFKSIV;1
GMATAAGTTLGKLAKFVIGAVAMD;1
IDEYDYGYCIRW;0
GILGKLWEGFKSIV;1
EIYAAREKAEGAEGETIQRGD;0
ILPLKLPLLPLRRAMD;1
LTLFEPDNSSHPITL;0
GVLSVTVPAKKVD;0
RILRGVSRRIMRRILTGRR;1
LNIPIFRIDFIKEYWDEVFSD;0
PPSPRSVDQVKSQLRTALASGGV;0
GLSALISWIKRKRQQAMD;1
FIGLLISAGKAIHDLIRRRHAMD;1
IVPEEPTLPFPEKVRCIKKYQ;0
LNTDLKRERDQFARFLSMVVEHKHR;0
TMNLPVATALFTPSWH;0
ANVGFVIQLQARLRGFLVRQKFA;0
NRLARHFRDIAGRVNQRL;1
LDFLAVAVADLGSIAER;0
GLLSGILGAGKQKVCGLSGLC;1
FIGLLISAGKAIHDLIRRRH;1
RAFDHYWPRFGV;0
RRWPWWPWKWPLI;1
PNLSGFVSWKMALSISVGVLV;0
GAARKSIRLHRLYTWKATIYTR;0
GLGKFLHSAKRFGKAFVGEAMNS;1
GIGKFLHAAKKFAKAFVAEIMNS;1
GIGAVLKVLTTGLPALIKRKRQQ;1
SLCRTDHLCRSRL;0
LVRGCWTKSYPPKPCFVR;1
FFHHIFRPIVHVPKTIHRLVTG;1
GFMKYIGPLIPHKVKAISDLI;1
LLGMIPLAISAISALSKLAMD;1
EEPQEGGEEEEEEEEE;0
CVISAGWNHKIRCKLTGNC;1
KPYLKRFQVYYKGRMWC;0
INWKKGKEVLKAL;1
RRAFLLASDEEVA;0
TSVDFKDTDYKRHQ;0
FPFLLSLIPSAISAIKRLAMD;1
SAVLRHLRRFLLRKHRKH;1
ILPWKWPWWPWRR;1
GEFAIARKNVSINEAV;0
IWSAIWSGIKGLLAMD;1
YSMGVREQIIFPEIDY;0
FFHHIFRGIVHVPKTIHRLVTG;1
VNRDYRVCDSYPTELYVPK;0
LFGFLIPLLPHIIGAIPQVIGAIR;1
FSEAIKKIIDFLGAMD;0
GFMKYIKPLIPHAVKAISKLI;1
AAGLAMLFLGILSAAGSTMGARA;1
AWASFFKKAAHVAKHVAKAALTHYL;1
FHPSLWVLIPQYIQLIRKILKSG;1
EKQFRNTFKIARKKSGNTAENL;0
RGGGLCYCRRRFCVCVGR;1
GIGKFIHAVKKWGKTFIGEIAKS;1
DATVVYGVNQHLL;0
GVAKFGKAAAHFGKGWIKEMLNS;1
YNGIRDMKKLPDVIWIVDTVREKI;0
AKRHHGYKRKFH;0
RLCYTRGRFTVCV;1
GLFDIIKKIAESFAMD;0
ANDKDTLVMELSS;0
GKLIKKFGRKAISYAVKKARGKH;1
WLLEYAPSRLTGTGACVFAEFDTE;0
ILPWKWKWWPWRR;1
AVAVVGQAATVVKAMD;1
MKKVMHGDRIVAVIHTEKER;0
ICYCRRRFCVCVGR;1
EKMTIEQMALAIRYGSGI;0
ARAVAGSDLSRRIELDGP;0
YGRKKRRQRRRSISLL;0
PLPDQSSCWYEVVTHGGSQPTG;0
PKDLKETLQEKKP;1
NNHEHKQPLPSLAIAAIGVVFGD;0
LPEGTSAQKAELVALTQALRLAEGK;0
KVKWQQVRQELAEEYEQVKSIV;0
RWRRIVVIRVRRAMD;0
KKKKKKAAFLAWALFAA;1
FCYCRRRFCVCVGR;1
RYGEVPLPPYIKCHDPSDSERYQTR;0
RRFPFFPFKFPLIAMD;1
RGGRLCYCRRRFCVCY;1
SGDSADVARDVKQPTATPR;0
GFKRIVQRIKDFLRNLVAMD;1
GIGKFAHSAKKFGKAFVGEIMNS;1
RFRRLRKKKRKRLKKIAMD;1
SGIQFRRLNASKGAAVRATR;0
FFHHIFRAIVHVPKTIHRLVTG;1
LHNFNSKIQAVVQHSGVK;0
GFMKYIGPLIPHAVKAISKLI;1
LNKLLGSVVISQGGVLPHIMAEL;0
STIGDLVKWIIDTVNKFTKK;1
WRRRYRRWRRRRRWRRRPRRAMD;1
LCYCRRRFCFCV;1
DGSQDSPIFMYAPEFKFM;0
GLNALKKVFQGFHEAIKLINNHVQ;1
FFGHIWHGARTLFRDVFAAMD;0
TCYCRRRFCVCVGR;1
RGGRLCYCRRRFCVCT;1
SMLSVLKNLEKVELEFVACKINKQC;0
EDKQCREVTYKSKYEKGG;0
RGGRLCYCRRRFCVCV;1
FLRFIGSVIHGIGHLVHHIGVAL;1
NWTLKVDESAKTLKE;0
PVDLVTASGSG;0
LPRRNRWSKIWKKVVTVFS;1
YHCGVCLQRAPASKTLTLHT;0
LCYCRRRFCFCV;1
GKSGHGIHCLGVRVGKYVL;0
ACTRKAWFWAMD;0
KNWKGIAGMAKKLLGKNWELMEK;1
RKRTEFAGAKFKESKVFEANEEAL;0
KQLIRFLKRLDRNLWGLA;1
GIGKFLHSAGKFGKAFLGEVMKS;0
FLGALWNVAKSYFAMD;1
ILGPVISTIGGVLGGLLKNL;1
RGGRLCYCRRRFCVCY;1
GIMSSLMKKLKKHIAKAMD;1
LCYCRRRFCVCVGR;1
RGGRLCYCRRRFCVCA;1
RISLIQDMRHIQN;0
LLGMIPLAISAISSLSKL;1
FNLRDFANIFQG;0
RGGRLCYCRRRFCVCV;1
VILLVVVTCGAFM;0
IWRIFRRIFRIF;1
ILPWKWKWWPWRR;1
GFMKYIKPLIPHAVKAISKLIAMD;1
FIQYLAPLIPHAVKAISDLI;1
FFPGIIKVASAILPTAICAITKRC;1
LVEPLQLCHESLHACGMGVIAD;0
VNWGEIDFLIIDTPPGTSDEH;0
GLKALKKVFKGIHKAIKLINKHVK;1
FLRSLLRGAKAIYRGARAGWRGAMD;1
LETYTPDSISALHNIRNYLVE;0
GLNALKKFFQGIHEAIKLINNHVQ;1
GIGKFLHSAKKFGKAFVGEIMNS;1
LFASQRLISGKVDDADLNSYHS;0
RVRRFPWWWPFLRRRAMD;1
KRRKLAFRLFRLFLKLVLKKAMD;1
WCYCRRRFCVCVGR;1
RRWPLLPWKWPLI;1
TKPKGTKPKGTKPKGTKPKGAMD;1
QGLEDSKRSKSLLPDHTSD;0
ADTAASAIAVALEAQKFVV;0
GLFGKSSVWGRKYYVDLAGCAKA;1
GIGKFIHAAKKFGKLFIGEIMNS;1
LLRRLLRRLLRRAMD;1
LLIILRRRWRKQARARSKAMD;1
IIEGIGPRYCPSIEDKVMRFA;0
YCYCRRRFCVCVGR;1
GFMKYIGPLIPHAVKAISKLI;1
SIFVVPVKSSDMLLNECLKIAKT;0
ADERREFAVSMLRD;0
GLPALISWSKRKRQQAMD;0
VFQFLGKIIHHVGNFVHGFSHVF;1
ILGPVLGLVSNTLDDVLGILAMD;0
GIAKFGKAAAHFGKKWVGELMNS;1
YDVKQQRLLLAQEEYNHLNK;0
LCYTRRRFTVCV;1
NITARFNRYRRML;0
ILPLKWPWWPWRR;1
SRRYPGVYTDVHYVKPFI;0
DKYRVLAGNDGTVSYLSLLDQL;0
FVPWFSKFLPRIL;1
FFHHVFRGIVHVGKTIHRLVTGAMD;1
AESYPGLTVDQLSLEQLQNF;0
FFHHIFRGIVHVGKTKHRLVTGAMD;1
ILGKIWEGIESLFAMD;0
SDCITNEILVRFTEALEFNTV;0
VTEVAWQAHFVKNMFIRPTEEQLKN;0
ILPFKFPFFPFRR;1
AKDYAIEGGSVLHLVLALRGGLLM;0
HDVLYEPPVGITIAVPKPT;0
KLLKFVTKVGKAIFKALIKAI;1
RIIKCGYRDGDNAPMAIV;0
GIWDTIKSMGKVFAGAILQNLAMD;1
IGDLVKWIIDTVNKFTKK;1
WKWKPGKWKWAMD;0
RKAEQAAAEQALKQLELEMTTML;0
RRRRRRAAFAAWAAFAA;1
ISMRIVEQQTE;0
HYRIKPTFRRLKWKYKGKFW;1
RFRRLRKKFRKRLKKIAMD;1
RGGRLCYCRRRFCVCL;1
GLLSGVLGVGKKVLCGLSGLC;1
FFGWLIRGAIHAGKAIHGLIHRRRH;1
DNTDSVVKIQSWFRMATARKSYL;0
TLLDWVKHLQKNLNAGVLDSFSVTM;0
ILPWKWPWLPKRR;1
LDSLGMRPKAVNIRTMP;0
EERRGIHQDAPEFADQSTEAEVLV;0
AAKKGSEQESVKEFLAKAKEDFLKK;0
KTYDKRESIAKKDQERNL;0
KIRFTRTVSRLLKAALAST;0
YQVLQAGGFTSGGTNFDSK;0
TSRCIFYRRKKCS;1
GIIKKIIKKIIKKIIKKI;1
FFGWLIRGAIHAGKAIHGLIHRRRH;1
KLLKLLLKLWLKLLKLLL;1
ACTRGGRLCYCRRRFCVCVGRAMD;1
FFKKFWGGVKAIFKGARKGWK;1
GLKEIFKAGLGSLVKGIAAHVAS;1
WKLLSKAQEKFGKNKSR;1
VISLQKLIVREVANEEKAMFL;0
ILPWKWPWWPLRR;1
IFRIDEEAIKAHLPVPPQG;0
FFHHIFRPIVHVAKTIHRLVTG;1
GLLSGILGAGKNIVCGLSGLC;1
SKVWRHWRRFWHRAHRKK;1
FFHHIFRGIKHVGKTIHRLVTG;1
RAPSMIDEFPILS;0
KNWKGIAGMAKKLLGENWELM;1
EKIFQNPTDEEST;0
YIPDGGPDGGDGGDGGSVYL;0
RIVVVDLHNPSIQGFFNIPVD;0
QSRVIQGLVAGETAQQICED;1
IERAHRISLLIERAL;0
RLRRIVVIRVRRAMD;0
FPTQLARHIKFGQKSHVEC;0
GSLPLCMLLERTGASE;0
ILGPVLGLVGNALGGLIKKLAMD;1
NREDAAQAAEERSETRTPPEA;0
RRFPFFPFKFPLIAMD;1
FSPQMLQDIIEAATAIL;1
TTSIRRRYQVSLIRRHRGKR;0
LRRLWLRANRLLRRLWLRANRLAMD;1
FFRLLFHGVHHVGKIKPRAAMD;1
IEVVLQVLSISAITTT;0
GIGKFLHAAKKFAKAFVAEIMNS;1
LIRGLFKSFWQVFAMD;1
GKPRPYSPRPTSHPRPIRV;1
FFHHIFRPIVHVGKTIHRLVTG;1
SAVWRRWRRFWLRKRRKR;1
DSHAKRHHGYKIKFHEKHHSLRGY;1
VRRFKWWWKFLRR;1
SNPLELDKRSAELDTATWQ;0
LETEVRLMGEFPPDELAGLDGH;0
RGGRLCYCRPRFCVCVGR;1
NRDAKKLQDYGDITYHSKKHR;0
MDFIIDIIKKIVGLFTGK;1
RGGRLCYCRRRFCVCI;1
KGIEVVLMYDRIDEYV;0
GRDYRTSLTIVQKLKKMVD;1
MQFITDLIKKAVDFFKGLFGNK;1
GLNALKKVFQGIHEAIKLINNHVK;1
ILPWKWPWLPYRR;1
AVFLMVKHPHVQGR;0
ARIVQRIKDFLRAMD;0
MQFITDLIKKAVDFFKGLFGNK;1
FFHHIFRAIVHVPKTIHRLVTG;1
RGRGKQGGKVRAKAKTRSS;0
MASRAARLAARLARLALRAL;1
TQLLWAAQNRGEKILCEGAQ;0
RAFDHYWPRFGV;0
RAKIFKKIEKVGRNVRDGIIKAAMD;0
GRRPRPRPRPWWWWW;1
KKKLFWKIPKFLHLAKKF;1
EYNPGDGAFYGPKLDFVVKDA;0
GLLSGILGAGKHIICGLSGLC;1
GFFALIAQIISSPLFQTL;1
IGQGASGGVYTAYQHGT;0
TPIAQILAIRELNIGHSLI;0
FLRAMPQVVNGTKHG;0
AENSNTAKHAAEFW;0
INQKKIASIGKEV;1
DMITDLDFETLYQYMLSDKKNDKQ;0
ALRESLVPLNKKYPIAELMESCA;0
GSTSFHLIYNKWFAVKRRRKR;0
TLGIIFFAIFFREPPRIS;0
VEPPENPLFVLSDHHDFTDEE;0
FVQWFSKFLGKIL;1
MDFIIDIIKKIVGLFTGK;1
RRIHIHIPGIHIHIRRAMD;0
RHWMANKQYVFTKEEVAKLAKQY;0
GMSAQKPGLHPRNRHQHRYDL;0
GLPALISWIKRKRGGAMD;1
GADEKFLERVEEEELTVDGLPE;0
NRFTARFRRTPWRLCLQFRQ;1
AKKVFKRLGIGAVLWVLTWG;1
FFHHIFRPIVHVAKTIHRLVTG;1
WKRIVRRIKRWLRAMD;1
SAVWRWRRFWLRKRK;1
AWASFFKKAAHVAKHVAKAALTHYL;1
PRALLFISYAANQAVLAA;0
SGGLSGAPVFEKSTECLRLFAQ;0
LDPIVAKRVRHILTENARTVEA;0
ARAVAGSDLSRRIELDGP;0
ILQQDFCHAIKVGVKYTQQIIQG;0
FRWCFRVCYKGRCRYKCR;1
AKKVFKRLGIGAVLWVLTTG;1
TRSSSVHSASLPALTKTD;0
ICYCRRRFCVCVGR;1
RGGRLCYCRRRFCVCVGR;1
RGGGLCYCRRRFCVCVGR;1
KRRKLIKILKLIIKLIRKKRAMD;1
NPHGPGSTLPESPVFLEPINSTAPR;0
LTIPNLPADEVPVGKDENDNV;0
FIHHIFRGIVHAGRSIGRFLTG;1
SFISGADVCFVKWYPSEQY;0
GIMSSLMKKLKAHIAKAMD;1
SDTFREQLPMAVDMLQH;0
VRHIHFVGIGGAGMGG;0
ILPWKWPWWPLRR;1
KKAAAFAAAAAFAAWAAFAAAKKKK;1
GPQHTVVLKDQDGN;0
LRWEELTKLDRDARKRESRHLR;0
YHLSKEDAEVINATKKRGNKVI;0
GKLEVLHSTKKFAKGFITGLTGQ;1
KPEFVKPEDVSADVVEKEYQVQLD;0
VIPFVASVAAEMMHHVYCAASKRC;1
IADYDADLWQAM;0
FFHHIFRAIVHVAKTIHRLVTG;1
FFHHIFRGIVHVGKTAHRLVTGAMD;1
LLGMIPLAISAISALSKL;1
RIVVVDLHNPSIQGFFNIPVD;0
KKKKKKAAAFAAAAAFAAWAAFAAA;1
VCYCRRRFCVCVGR;1
RQIKIWFQNRRLKWKKAMD;1
ILPLKLPWWPWRR;1
GLKDKFKSMGEKLKQYIQTWKAKF;1
GDKIRALHMILEM;0
KAVNKAGPGKPSDPTGNV;0
MQFITDLIKKAVDFFKGLFGNK;1
FLGGLIKWPWWPWRRAMD;1
SLIRWMKAAITATANYLPPDILSNH;0
LRRLWLRANRL;1
EERRGIHQDAPEFADQSTEAEVLV;0
AKKVFKRLGIGAVLWVLTTG;1
IDWSKIFEKVKNLV;1
IISTIGKLVKWIIDTV;1
FGVLAKVAAHVVPAIAEHF;1
GEKLKKIGQKIKNFFQKL;1
VTRAKQIVWNGPV;0
LANLKVSQIKKVRLLIDE;0
SKVGRHGRRFGHRAHRKL;1
RFPGLMMKLLVAMD;1
EWQNNKQSKQYI;0
KISKKIMRTFLRRILTGKK;1
ASGKRAAMLRDGLHVVIVGAPNAGK;0
KRIRKRIKKWLRAMD;1
IFLAMIHFYQRFISPLT;0
VDRDDDLKIGVKSTAVLF;0
IIGPVLGLVGSALGGLLKKIAMD;1
WCYCRRRFCVCVGR;1
SCQALILAPTRELAQQIQ;0
KFICPCHGSQYNNQGKVVR;0
LGFGTFVLMLLGLVVELIK;1
ACTAERVGAGAPVYLAMD;0
FVPWFSKFLGRIL;1
DKSYLEPYLKEVIRERKEREEWA;0
GLNAFKKVFQGIHEAIKLINNHVQ;1
KFGKSTGGGNLWLDPE;0
DALRGAMLSKDPTTGETH;0
PGAAALVRHVHKAVAGVTDDLE;0
HSGTFSPQTPVPAT;0
SISLLYGRKKRRQRRR;0
WMGLDIGPDAVKVFQDALGDC;0
YDPGRDGSEKKIRECVICMMDFVYG;0
SYDVCVSKDFLSKGDRVLF;0
RLMAAKAESRK;1
KGFFALIPKIISSPLFKTLLSAV;1
SKVWRHWRRFWHRAHRLH;1
LRLKYRRFKYRV;1
FYTHVFRLKKWMQKVIDRFGG;0
LFGFLIKLIPSLFGALSNIGRNRNQ;1
ACTRRKKWFWAMD;0
RGGRLCYCRRRFCVCVGR;1
DVTSLMLGPMVAACGGYVPMIS;0
KKLFKKILKYLTTGLPALISW;1
VGVHVIGDGADEMLQGFAVAV;0
LLRRLLRRLLRRLLRRAMD;1
FIGLLISAGKAIHDLIRRRH;1
KVKVKVKVPPTKVKVKVKAMD;1
SKREIKNLRELKIPWLRILPYIVD;0
FVQWFSRFLGRIL;1
GFFALIAKIISSPLFKTL;1
FRWCFRVCYKGRCRYKCR;1
FHPSLWVLIPQYIQLIRKILKSG;1
GLLDFVTGVGKDIFAQLIKQI;1
GRTSKQELCTWERGSVRQADKTIAG;0
PGRFEVVDGGQNYTVIVDYA;0
VVIPFHHDIWSNFQADPQEIRVLW;0
LRRLWLRANRLLRRLWLRANRL;1
LCYCRRRFCVCV;1
ILPLKLPWWPWRR;1
AATLPQVRGLIMLAATPCFVRRED;0
GWKKWFTKGERLSQRHFA;1
ACTWRKKWFWAMD;0
LLIILRRRWRKQARARSK;1
SVKKFWGGVKAIFKGARKGLK;0
FAKKFAKKFKKFAKKFAKFAFAF;1
VGMHDKLFKRARVMYEIERDIS;0
PRQLTHDAGLTVDDIAKRLMDYG;0
TISVVGWVHRRRDHGG;0
AVGIGALFLGFLGAAGSTMGARS;1
LKIFNTLSRQKEEFKPIHAGEVGM;0
EEYVRDVGEGLNPDIPQNYYRQDDP;0
WKRIVRRIWRWLRAMD;1
ITKVIAKLLNRLTKILSK;1
FFHHIFRAIVHVAKTIHRLVTG;1
FFHHIFRGIVHVGKKIHRLVTG;1
GGLAIAVEGPSKAEISFEDRKDGS;0
FREREQAMIAELCE;0
WYLTLTLGYGRR;1
AQDIISTIGDLVKWIIDTVNKFTKK;1
GIWDTIKSMGKVFAGLILQNLAMD;1
YKQLMRILTTMENIADLWNSALTEL;0
ERQVQELAFPGSAQDVERLLKKQR;0
AKENVEIQAENQTLATTTFQN;0
WKRIVRWIKRWLRAMD;1
AWHCGECKEIIVARE;0
KVAKQEKKKKKTGRAKRR;1
LEIEGAMALLMKDAIKPNL;0
WGRAFSRGVRRLARGGRGAMD;0
SFPFFPPGICKRLKRC;1
RLWDIVRRWVGWLAMD;1
INLDAIALMSCNPA;0
FKLRAKIKVRLRAKIKL;1
GFRKIVQKIRDFLRNLVAMD;1
IAAERRYATIYQARLWAFAMD;1
RAYCRRRFCVAR;1
MKDRRGQVIYVGKAINLRS;0
ILPWKWPFFPWRR;1
GFMKYIGPLIPHAVKAIKKLI;1
WESFSSVVPRTDWGLFFKG;0
ILGKFWEGIKSLFAMD;1
LSMCGNSGYEVIKILEPYVVNSLVQ;0
WSPQEEDRIIEGGI;1
LRQCLVTHNGRLLGIITKKD;0
RQIWKFECKATVDGKAVCSAE;0
FRKLFRVYSNFLRGKLKL;1
RAGLQFPVGRLLRRLLRRLLR;1
GLLSGILGAGKHIICGLSGLC;1
VYDDSKAVFPV;0
EVAETVLGKLPKPRYADYLPFKD;0
LLGMIPVAISAISALSKL;1
ARHFEEESKDLAGRLQY;0
CKTRTSTNTDHLWIAKSKARLSET;1
KVKVKVKVPPTKVKVKVKAMD;1
DCTRWIIGINGRICRD;1
FVPWFSKFLGRIL;1
AAALEKKNVDLNELLQR;0
ISVEDIKNTLGNTDIIKN;0
SSRGSAKDETQTSGEEPAPAKSF;0
GLLSGILGAGKQKVCGLSGLC;1
IWRIFRRIFRIFIRFAMD;1
SRLKATQSQVF;0
VYVMPLGGRDEKLVIA;0
SKVLRHLRRFLHRAHRKL;1
LQIRAPVNPTIWPL;0
FVRWFSRFLGRIL;1
GLLALISWIKRKRQQAMD;1
RVPLADKPHEKTM;0
ILPYKYPYYPYRR;1
GVSEPYRMFTSRAEYR;0
AWKVFKRLGIGAVLWVLTWG;1
GFFALIPKIISSPLFKTLLSAV;1
FRLHREPDLPGTLLQEDILV;0
FFGWLIKPAIHAGKAIHGLIHRRRH;1
ILPWKKPKLPWRRAMD;0
MTDKYKERRFDTYGYEK;0
ILPWKLPWWPWRR;1
GFFALIAQIISSPLFQTL;1
GCSATFSVLKKRRNCSNCGNIF;0
GLKEIFKAGLGSLVKGIAAHVAS;1
CTYDADTLSKDPADGR;0
VDPAGGVLEDDYTVT;0
KKSSFANVAAATPAIKKPPSGFK;0
KWCFCVCYRGICYCRCRG;1
HVECNVGWLEPLLERVYLSRKKV;0
TADMLCFVSACKDFC;0
FSALFGMEKSIFRQLKIY;0
LRLKYRRFKYRV;1
QCRRLCYKQRCVTYCRGR;1
FKTWKRPPFQTSCSGIIKE;1
RVLHGLGWKVLVCDPVR;0
VKPGDTILGMSLDAGGHLTHG;0
KNWKGIAGMAKKLLGENWKLM;1
KRRLILRILRLAIRALVKKRAMD;1
LTEQVRRKPYSVILLDE;0
GLNALKKVFQGIHKAIKKINNHVQ;0
YQIDQLSKMTYKNKSLNIHDLTA;0
WKSYVRRWAMD;0
VLEQVVQQGRPMLIIAEDVEG;0
FLFSLIRKAIGGLISAFK;1
GLKKIFKAGLGSLKKGIAAHVAS;1
IVIRHLYIERRMVPLN;0
FLGGLIKWWPWRRAMD;1
FVRWFSKFLGRIL;1
FFHHIFRPIVHVPKTIHRLVTG;1
KKAAAAFAAFAAWFAAFAAAAKKKK;1
ISVEDIKNTLGNTDIIKN;0
GLKEVLHSTKKFAKGFITGLTGQ;1
SSRALVLDRDGQVK;0
KKKAAAFAAWAAFAKKK;1
VERSRKAAQQAD;0
IDKAERGTRIVLH;0
TDFNILYSMMKKHEEFRWMRLRIRR;0
DSHAKRHHGYKRKFHEKHHSHRGY;1
FVQWFSKFLGRIL;1
LVPGGGASEMAVAHALTEKSKAMT;0
TLGIIFFAIFFREPPRIS;0
LLIILRRRWRKQAKAKSKAMD;1
ILPFKFPFFPFRR;1
FFHHIFRGIVHVAKTIHRLVTG;1
KVKVKVKVPPTKVKVKVKAMD;1
FLGLLFHGVHHVGKWIHGLIHGHH;1
GLFDIIKAIAESFAMD;1
TYDNIKAMKKQLRSIGLSLDWSR;0
FCYCRRRFCVCVGR;1
KQYQHEEDEDFYPDSMEYS;0
KRRLIFRILKLFFRFLVKKRAMD;1
GQEDADRDGIGDACDDDADGDGIL;0
FLPLVTMLLGKLFAMD;1
PRIVYLNKMDRVGADFF;0
GLKKIFKAGLGSLVKGIAAHVAS;1
WKRWVQRWKRFLRAMD;1
KERTLKRLERTLQFLKKTMTVKTRF;0
IQLYLSAATTAVKEGRNQ;0
ASFHSVSKGYMGECGFRGGYVE;0
VRRFPAAAPFLRR;1
PVHMTTAVFFDFG;0
GFLSILKKVLPKVMAHMK;1
RQIWKFECKATVDGKAVCSAE;0
RFFASSILHHTSECTQMDHLGCLHY;0
ILPWKWPWLPLRR;1
SYNDALIGDIEVMDDTAISLAKDN;0
WKRWVRRWKRWLRAMD;1
APHPYGVPTPPTGAYSRAG;0
CVHWQTNPARTSCIGP;1
KNWKGIAGMAKKLLGENWELM;1
GIGKFLHSAGKFGKAFVGEIMKS;0
FFHHIFRGIVHVAKTIHRLVTG;1
LCYCRRRFCWCV;1
TQSEYYNHAIDWQTGPG;0
AAGLAMLFLGILSAAGSTMGARA;1
GLFDVIRKVASVIGGL;1
ILPLKLPWLPLRR;1
GLFGVLAKVAAHVVPAIAEHF;1
RAGLQFPVGRLLRRLLRRLLR;1
GVCGKASLQAVSQVSRFAPGGDPA;0
FLPWFSKFLGRIL;1
SAVWRHWRRFWLRKHRKH;1
DSHAKRHHGYKRKFHEKHHSHRGY;0
EPDDGIAAIGSGGPYALAA;0
GIGKFLHSAKKFGKAFVAEIMNS;1
RAGLQWPIGRLLRRLLRRLLR;0
KRKLIFLAAFLAALALFKKRAMD;1
KNWKGIAGMAKKLLGKNWELMEK;1
FDWDSVLKGVEGFVRGYF;1
SKVWRHWRRFWHRAHRKL;1
VITNMKFPGYMLIV;0
NLMSSVLPDGTTTC;0
KKAAAAFAAFAAWFAAFAAAAKKKK;1
LCYCRRRFCVCVGR;1
FFRNLWKGAKAAFRAGHAAWRA;1
AACVLGPGRIASLAALDDSKKL;0
QGVLANAATRFAVGDTLKV;0
GLKKLISWIKRAAQQG;1
RLVRILVSKRPVAIKPYFRL;0
YSMGVREQIIFPEIDY;0
GIGKFLHTLKTFGKKWVGEIMNS;1
ICEQVGDPATSKGP;0
SAVGRHLRRFLLRKHRKH;1
GLLDFVTGVGKDIFAQLIKQIAMD;1
GIWKKWIKKWLKVLKNLFAMD;1
ILPLKWPWWPWRR;1
RQIKIWFQNRRMKWKK;1
SAVGRHGRRFGLRKHRKH;1
WFGESEANVREIFDKA;0
VRRFAWWWAFLRR;1
LHNFNSKIQAVVQHSGVK;0
KKKKKKAAFLAWALFAA;1
GFMKYIGPLIPHKVKAISDLIAMD;1
VRRFPFFFPFLRR;1
FRRFRKWFRRFLKLFAMD;1
ACTFKKLKKLFSKLWNWKAMD;0
QADFQKVVAGVANALAHRYH;1
FLGLLFHGVHHVGKWIHGLIHGHH;1
RGGRLCYCRPRFCVCVGR;1
AGPLVRSSYHADEQVNE;0
YVEMSAKEHEFACE;0
GKMKEYFKKFGASFKRRFANLKKRL;1
AKALRDAGLAVRDVSELTGFP;0
EQNEQAQDIQNEQVEQSNEQ;0
AMKSLDIMLSHGTTT;0
RRWRIVVIRVRRAMD;1
TRSSRAGLQWAVGRVHRLLRK;0
ACTARKKWFWAMD;0
LDTQMFGLQKEVDFAVQL;0
RRWPWWPWKWPLI;1
ISASAEELRQRLAPLAEDVRGNLRG;0
AWASFFKKAAHVAKHVAKAALTHYL;1
GLPALISWIKRKRAMD;1
LRADVALTTASVTLPSDGE;0
LNKLLGSVVISQGGVLPHIMAEL;0
FLFSLIPKAIGGLISAFK;1
QGLEDSKRSKSLLPDHTSD;0
FVQWFSKFLGRIL;1
ANAIEFDVDFDDDGVAKY;0
VRRFGWWWGFLRR;1
FFHHIFRGIVHVGKTVHRLVTGAMD;1
VDLEPGTMDSVRAGPFGQ;0
IMGCYGLGITRVVAAAIEQ;0
WRPGRWWRPGRWWRPGRWAMD;0
GVLSVTVPAKKVD;0
RGGRLCYCRRRFCVCR;1
GLNALKKVFQGIHKAIKLINNHVQ;1
KAGAEAALAASIFHYGEY;0
LRLEYRRFEYRV;1
GVGKFLHSAKKFGQALVSEIMKS;1
YRMWRWRWRWRAMD;1
EQEENVVKIQAFWKGYKQRKEYM;0
GNNRPVYIPQPRPPHPRL;0
RGGRLCYCRRRFCVCW;1
IKITHSNKLRETLADVL;0
ILPWKWPYLPWRR;1
GIGKFLHSAKKFGKAWVGEIMNS;1
YATQLNPAFYSVEVRITV;0
HSPAKLEQLILKLDWMCLDLNQVLK;0
LNENTSNLAIMLEDKILRKARDIYI;0
LRLEYRRFEYRV;1
GLLRASSVWGRKYYVDLAGCAKA;1
EAGLAALRAERAKNDRMSGREL;0
MAARAARLAARLARLALRAL;0
NNHEHKQPLPSLAIAAIGVVFGD;0
GFMKYIGPLIPHAVKAISDLI;1
TQFETDAGLETVRGDMTEDETR;0
KLSLLPKDKDDARNAILEIRA;0
FRRPFKWFRRFFKFFAMD;1
FPFSLIPHAIGGLISAIK;1
ILGKIWEGIKSLFAMD;1
ILPWKWPLWPWRR;1
NDFMVVDAVTQNV;0
IINDTSHARADNCTGLKEEE;0
LLIILRRRWRRQARARSRAMD;1
FHPSLWVLIPQYIQLIRKILKSG;1
GLPALISSIKRKRQQAMD;0
FAKMKSSAIFINAGRGPVVDENA;0
HKTFATPHGGGGPGAGPVAVNDK;0
HFLGTLVNLKKKILAMD;1
FFRLLFHGVHHGGGYLNAAAMD;1
AKKVFKRLGIGAVLWVLTWG;1
FVRWFSRFLGRIL;1
PKLLETFLSKWIG;1
GMATAAGTTLGKLAKFVIGAV;1
GRPNPVNNKPTPHPRL;1
GLPASISWIKRKRQQAMD;0
SKPGIKVTKLEKLGLRMDSCCEITF;0
ILPWKWPWWPWRR;1
ETMKIKDDGQGHLDLFLSFLNEKLL;0
ALQEYKPSPFYYFDEVDAHLD;0
LCAYVTHLPVDNYQTDAAV;0
ELNYDSINTTTTFLGKSLQA;0
KEEPKEEPKPLSDTTY;0
GIMSSLMKKLKKIIKKAMD;1
FFHHFARGIVHVGKTIHRLVTGAMD;1
FFHHIFRAIVHVGKTIHRLVTG;1
FVGAIAAALPHVISAIKNAL;1
GWGDTFGKVLKNFAKVAGVKAAK;0
ILPWKWPLLPWRR;1
RDAKELVELFFEEIRRAL;1
NYHATNPRYHE;0
RGGRLCYCRRRFCICV;1
ILPWKWPWLPWRR;1
GGPKSRPIESIMALNVKRA;0
KKKLFWKIPKFLHLAKKF;1
GFMKYIGPLIPHAVKAISKLIAMD;1
TIDDFAKLDLRVAEVRVAEAVEGAD;0
PEEERRKWEEGRIDYMGKDAF;0
YCYCRRRFCVCVGR;1
RGGRLCYCRRRFCICV;1
TSRCIFYRRKKCS;1
KWRQWQSKWRRTNPWFWIRR;1
IWRIFRRIFRIFIRF;1
GKTLVSRTQGTKIASE;0
FALALKALKKALKKLKKALKKAL;1
ILPWKWKFFPWRR;1
GKTLVSRTQGTKIASE;0
FLFSLIPSAIGGLISAFK;0
KKWMQKVIDRFGG;0
RRRRRRAAFAAWAAFAA;1
VFQFLGKIIHHVGNFVHGFSHVF;1
SHGLEFINLSTEGENEYKEKQG;0
SLKDKVKSMGEKLKQYIQTWKAKF;1
RGGRLCYCRRRFCVCT;1
QRAVYKDLVLLLQKDSLL;0
KMPKEYDLFAYPEEINVWLIFRQ;0
RGGRLCYCRRRFCVCI;1
APAVAFDHLDDMHQAFLQ;0
PEEERRKWEEGRIDYMGKDAF;0
FVQWFSKFLGKIL;1
SGGLSGAPVFEKSTECLRLFAQ;0
RLWDIVRRWVGWLAMD;1
EEEDLYMIGTSEHAMAA;0
ASVAKSPQTKEHLYHAA;0
FIHHIFRGIVHAGRSIGRFLTG;1
INWKSIFEKVKNLV;1
GIGKFLHSAGKFGKAFIGEIMKS;1
VEYDSFLDENDWDI;0
KVAKQEKKKKKTGRAKRR;1
DLVIGAINDAMARAQQLAAER;0
DSYWYLVGLASWS;0
DHVAALARLKEEGHEVVLIT;0
MVIKKPIEVRDGNKFVRLTPTKEP;0
LFGVLAKVAAHVVPAIAEHF;1
TSRTRVRRSGISPLHLAAERN;0
GIGKALHSAKKFGKAFVGEIMNS;1
ILPWKWPWLPWRR;1
TEQRNPNSMNIDQ;0
LCYCRRRFCWCV;1
FVQWFSRFLGRIL;1
TGELSVKVNVLRLLTKALRPLPDK;0
GFMKYIGPLIPHAVKAIKKLI;1
GSTGEAFVQSLSEREQV;0
RGRIGVGHPGH;0
RPAFRKAAFRVMRACVAMD;0
GLNCDAQVLVWQDMAGLSSG;0
RRWPLLPWKWPLI;1
EYDVDNILVAGPGFAKNSFYN;0
GKLNLFLSRLEILKLFVGAL;1
VIWDFGLQSSVTLVIPWISNTHYR;0
LCYCRRRFCVC;1
LVRGCWTKSYPPKPCFVR;1
IQFGWETITEALKQGGIT;0
LLIILRRRIRKQAHAHSKAMD;1
GIGKFLHSAKKFAKAFVGEIMNS;1
DHPLLRDAIQCRPVRELTHSFQ;0
FLSLIPHVISAIPHVVNALSNLAMD;1
TGRAKRRMQYNRR;1
ITKVITKLLNRLSKILSK;1
ILPWKLPLLPLRR;1
LVKLVAGIKKFLKWKAMD;0
RHAPWVNNIYLITNGQRPKWLNVN;0
FFHHIFRGAVHVGKTIHRLVTGAMD;1
LIKRLDQSEMVKLAEEALNKSTAEE;0
AWKVFKRLGIGAVLWVLTWG;1
LCYCRRRFCVCV;1
MAADIISTIGDLVKLIINTVKKFQK;1
FSQEQQLMKRGLKHIAGIDEAG;0
GFMKYIGPLIPHAVKAIKKLIAMD;1
GFARIVQRIKDFLRNLVAMD;1
GGPEGLSPACKAAAEQSWSL;0
FFHHIFRAIVHVAKTIHRLVTG;1
PRQLTHDAGLTVDDIAKRLMDYG;0
GLLSGVLGVGKKVLCGLSGLC;1
HGLKQLPGLAVQRLMQQGYGFAG;0
YSHDEMHALRRDAINTAKSAKKW;0
NGFKVLKKEKIHSVAAVIILESWFN;0
GLLRASSKWGRKYYVDLAGCAKA;1
EEDEMRTRVNKEMARY;0
GIGKFIHAAKKFGKLFIGEIMNS;1
ILPWKWPWLPYRR;1
FLGGLIKKWPWWPWRRAMD;1
LRRLWLRANRLLRRLWLRANRL;1
TAKANNMPKDNIDAAI;0
MHLNIPFYGLNLGSLG;0
FRRFFKWFRRFFKFFAMD;1
RLYNRSGESDVINKRLGEAAFEIS;0
SGYTLVHQFCRIGAHS;0
SLHETSTVLVETVT;0
KKKKKKAAAFAAAAAFAAWAAFAAA;1
WRPGRWWRPGRWWRPGRWAMD;0
ITEPDILASLDELIGRWAKEREAG;0
IIVKHNLDSFESASSTIQS;0
GIKEFAHSLGKFGKAFVGGILNQ;1
SRSEKAGLQFPVGRIGRMLKK;0
GLLDFVTGVGKDIFAQLIKQI;1
KNVNSIVKIQAFFRARKAQDDYR;0
KLLKLLLKLWLKLLKLLL;1
HGPEILRKAIKAGVPKNT;0
GLNALKKVFQGIHEAFKLINNHVQ;1
RRGWVLALYLRYGRR;1
ACTTRKKWFWAMD;0
KWKVFKKIEKMGRNIRNGIVKAMD;0
GLPALISWIKRKRQQG;1
VRRFPYYYPFLRR;1
IYVYNLKNMELINTL;0
PALTPELRITAYLP;0
IIPRLREPKDLYGSSSQDGC;0
ESYMRLNEKALDDFCQSLVDYL;0
IKMGQGKSREEKGTNSTN;0
SFIKRSLKLIKSLVLIK;1
EWGRRCCGWGPGRRYCRRWC;1
RGGRLCYCRRRFCVCW;1
RVVRQWPIGRVVRRVVRRVVR;0
GLPLLISWIKRKRQQAMD;0
FFHHIFRAIVHVAKTIHRLVTG;1
AAKFLNLEAITWANTRDTLGKHAI;0
ESLQHNSVLEKIKNAITKRV;0
RLYRRLYRRLYRRLYR;1
GKPYGNAYLGLRPKYSRWLAMD;0
QQAQKKGLRSRAWFKLDEIQQS;0
GLFEVIKKVASVIGGLAMD;1
QREVFIHLTDKSETIRPELSNA;0
KALAQAKLSAEEVDFVEIIGGT;0
DLVIGAINDAMARAQQLAAER;0
GLLRASSVWGRKYYVDLAGCAKA;1
GIIKKIIKKIIKKIIKKI;1
HIANLCKVVAPAPSKSRPE;0
RAPSMIDEFPILS;0
SKVGRHLRRFLHRAHRKL;1
EDMIALIQRLIDKGYAYVVDGDVY;0
RGGRLCYARRRFAVCVGR;1
ILPWKLPWWPWRR;1
EIDFKYADAVTAC;0
GIGKFLHSAKKFGKAAVGEIMNS;1
RIMGDKARPLWDAWARYEYTYGDLS;0
CFKFKFKFGSGFKFKFKFC;1
RLQSIAEVSYEFIASTLQ;0
ILGPVLGLDGNALGGLIKKIAMD;0
VCYCRRRFCVCVGR;1
YMKEEHDYQIIGE;0
LLRRLLRRAMD;1
HAMPDASKVAFVWLAR;0
KRRLFLFRLFRLFLRLFLKKAMD;1
IETFLKQLRSAANKIVGL;0
RKRTEFAGAKFKESKVFEANEEAL;0
RWRSFFKKAAHRGKHVGKRARTHYL;1
GIGKFLHKVKSFGKSWIGEIMNS;1
YNGIRDMKKLPDVIWIVDTVREKI;0
ACTRRKKWFWAMD;0
RGGRLCYCRRRFCVCA;1
FVRWFSKFLGRIL;1
GIGKFLHSAKKAGKAFVGEIMNS;1
TDKKCSMQTRRRLHQTDQQDYS;0
ILPIKIPIIPIRRAMD;1
DSKKYKDRISAAQ;0
QGEFLESAEFAGNYYGTPR;0
LLGVFQKMRIILLGAPGAGK;0
RRGWVLALVLYYGRR;1
EKDFQQILIIRRMVEDLAF;0
RLCYTRGRFTVCV;1
ILAWKWAWWAWRR;1
PNMFNTRQVGKTLIN;0
PTQVKIWFQNH;0
AVMGVPAHDERDFA;0
PKEIVLMLCQAFGIIYPSFHSFI;0
VGERVLVEATDLPAAGDRVWLKGY;0
AYHFEKQIEDML;0
EIALAGSNPLSTQDDVAAGLAKNG;0
SRSSRAGLQFPVGRIHRLLRK;0
EEFFNTFNALHDK;0
RVVRQWPIGRVVRRVVRRVVRY;0
LISWIKRKRQQGIGAVLKVLTTGL;1
EAGLAALRAERAKNDRMSGREL;0
HTADVILPAQTGRALAQT;0
GSMRKVLVWQNLDSPRAIV;0
RRSGPQRGSDLRYNLEVSL;0
YRAWRWAWRWRAMD;1
FVKKFWGGVKAIFKGARKGLK;0
NYIRRDIYEVTRLTASAGVSYNKF;0
KGVHCHIGSQIEGTEAFIETAKI;0
VRDREMFGYMKLHPED;0
KWKVFKKIEKMIRNIRNKIVKAMD;0
RAQAVRYRGIRIDKQPAYNVEV;0
EIEDDESDGMHYVDLSKNPERYT;0
INADKNFGHSDDLAGYQI;0
GFKRIVQKIRDFLRNLVAMD;1
KNQEAFVNLGVVLNTAMTGQESEK;0
HYRIKPTFRRLKWKYKGKFW;1
RHLNSKDVVIFAAGTGNPFFTTD;0
ACGLIILQITVGYRLLLLLLL;0
MVIKKPIEVRDGNKFVRLTPTKEP;0
GFMKYIGPLIPHAVKAIKKLIAMD;1
LSVKAFTGIQLRGVCGIEVKARG;0
GLNALKKVFQGIHEAIKLINNHVQ;1
KIVAEADAVVLATEHSVSLHLAAWF;0
LCYARRRFAVCV;1
KHFGRVAPHGKEWKWMMENVLGV;0
FSPQMLQDIIEKKTKIL;1
FFHHIFRAIVHVGKTIHRLVTG;1
FFHHIFRAIVHVGKTIHRLVTG;1
GIGKFLHSAKKFGKAFAGEIMNS;1
WKRWVQRWKRWLRAMD;1
VVKPGRILYEIGG;0
MRIIGVDESKIYNDV;0
VSRRRRRRGGRRRR;1
ILSAIWSGIKSLFAMD;1
ISGPVLGLVGNALGGLIKKIAMD;0
IKEVRAITNLGLK;0
GLPALILWIKRKRQQAMD;1
GFKRLVQRLKDFLRNLVAMD;1
LFNNYITAALKLLEKLYKVAMD;1
MAQAILELYPGSKLTIGPPVDDGF;0
EINRPIKMMLSQISPDIV;0
KRIVQRIKDWLRAMD;1
GLFGVLAKVAAHVVAAIAEHF;1
KRRILIRILKLIIKLILKKRAMD;1
SAVEKDREDFREAVVKTLDRLLF;0
GPLPPSIQTTLPTSVNLTQL;0
GIGKFLHSAGKFGKAFIGEIMKS;1
ESEDFSVGEIK;0
FLSLIPHAINAVSTLVHHF;1
LLRRLLRRLLRRLLRR;1
ILPWKWKFFPWRR;1
LREDKVEFSLSIEAIKK;0
TQSEYYNHAIDWQTGPG;0
HDENHPYRTWNYHGSYDVKPTGS;0
PKEIVLMLCQAFGIIYPSFHSFI;0
GIWKKWIKKWLKKLKNLFAMD;1
HLRRINKLLTRIGLYRHAFG;1
RGGRLAYARRRFAVAVGR;1
IISTIGDLVKWIIDTVNKFTKK;1
ILPWKWPWWPARR;1
RLWLAIGRGAMD;1
AIWRKATRRLVKLIVAMD;1
TIATNMAGRGTDIKLGEGVRELGGL;0
SRPNAMTVFWSKMAQSMTS;0
RLVLALAAHFKPGSSRT;0
IWRIFRRIFRIFIRF;1
VVTKHIKIVDKGFLTDREYYSAFHD;0
FLRFIGSVIHGIGHLVHHIGVAL;1
AIVMGAEGDGMRRLTRETCDDLIKI;0
KFTIVFPHNQKGNWKNVPSNYHYCP;1
GLLSGILGAGKHIVCGLTGCAKA;1
RRRRRRRVSRRPMRRYRSRRPRRLV;0
FLPWFSKFLGRIL;1
TRSSRAGLQFPVGRVHRLLRK;0
IAVVASFVDPKDHSFLKKL;0
TMMADWANDDVNLFGWREE;0
WGRAFRRGVRRLARGGRRAMD;0
LLRVRDDDIPGLVMDG;0
GFFALIAKIISSPLFKTL;1
ILPWKWPLLPWRR;1
LCYCRRRFCVC;1
VLTDVHDIDQVAPVAAVVD;0
EGGKVTVKTEAGAT;0
ILVVARFGNTRLLDNIWLMKTE;0
CFKFKFKFGSGFKFKFKFC;1
ICSLSTMYTFLL;0
GFMKYIGPLIPHAVKAISDLI;1
KNWKGIAGMAKKLLGENWKLM;1
GFMKYIGPLIPHAVKAISDLIAMD;1
ITKQITKQLNRQTKIQSK;1
RAGLQFPVGRLLRRLLRRLLR;1
QFGGMLLAYSGVQSKKLTAMQ;0
AVGIGALFLGFLGAAGSTMGARS;1
ILPWKWPFFPWRR;1
LGVTRAISDALGIPVI;0
IFSNTALVNCMRQTLQDTGHNP;0
QAYADIPSIVRRTILDIG;0
GFFALIPKIISSPLFKTLLSAV;1
VLSAADKGNVKAAWGKVGGHAAE;1
PPHGGLAPGIDRMVMLLAG;0
FSALFGMEKSIFRQLKIY;0
KRIVQRIKKWLRAMD;1
FFHHIFRPIVHVAKTIHRLVTG;1
VQWRIRVAVIRK;1
ILPWKWPYLPWRR;1
VIPSLCTDDKGQL;0
KAACAAHCLWRAMD;1
MVHEELNNKPYVINDLVGA;0
IPATIRQQPPSVVADT;0
GFMKYIKPLIPHAVKAISKLI;1
GLFGKSSVWGRKYYVDLAGCAKA;1
IIVLDSKRSNAINIGLTV;0
AVSVTFMDSQDTPIFEPLP;0
VTVLLKALGWTTEQ;0
GIGKFLHSAGKFGKAFIGEIMKS;1
ITPIADFHSKVISVEFNK;0
IWRIFRRIFRIF;1
AIRITHLPTGIVVECQDERSQHKN;0
SCQALILAPTRELAQQIQ;0
RAGLQFPVGRVHRLLRK;0
VKWMLESLAIARYM;0
LKDVEEAQQKIINIIRRL;1
FRRPFKWPRRFFKFFAMD;0
DEKQFISMVNEGAFIEHAKVFNHWY;0
