{
  "builder_name": "csv",
  "citation": "",
  "config_name": "default",
  "dataset_name": "csv",
  "dataset_size": 309777,
  "description": "",
  "download_checksums": {
    "C:/Users/Georg/PycharmProjects/AMPDeep/my_data/oliver_ampdeep_transformed/cytotoxic_train_data.csv": {
      "num_bytes": 226380,
      "checksum": null
    },
    "C:/Users/Georg/PycharmProjects/AMPDeep/my_data/oliver_ampdeep_transformed/cytotoxic_test_data.csv": {
      "num_bytes": 25527,
      "checksum": null
    }
  },
  "download_size": 251907,
  "features": {
    "text": {
      "dtype": "string",
      "_type": "Value"
    },
    "labels": {
      "dtype": "int64",
      "_type": "Value"
    },
    "input_ids": {
      "feature": {
        "dtype": "int32",
        "_type": "Value"
      },
      "_type": "Sequence"
    },
    "token_type_ids": {
      "feature": {
        "dtype": "int8",
        "_type": "Value"
      },
      "_type": "Sequence"
    },
    "attention_mask": {
      "feature": {
        "dtype": "int8",
        "_type": "Value"
      },
      "_type": "Sequence"
    }
  },
  "homepage": "",
  "license": "",
  "size_in_bytes": 561684,
  "splits": {
    "train": {
      "name": "train",
      "num_bytes": 278471,
      "num_examples": 6513,
      "dataset_name": "csv"
    },
    "test": {
      "name": "test",
      "num_bytes": 31306,
      "num_examples": 724,
      "dataset_name": "csv"
    }
  },
  "version": {
    "version_str": "0.0.0",
    "major": 0,
    "minor": 0,
    "patch": 0
  }
}